{
  "name": "Alice4NEW",
  "vendorProductId": 4276969568,
  "macros": ["", "", "", "", "", "", "", "", "", "", "", "", "", "", "", ""],
  "layers": [
    [
      "KC_TAB",
      "KC_Q",
      "KC_W",
      "KC_E",
      "KC_R",
      "KC_T",
      "KC_Y",
      "KC_U",
      "KC_I",
      "KC_O",
      "KC_P",
      "KC_BSLS",
      "KC_BSPC",
      "KC_ESC",
      "KC_A",
      "KC_S",
      "KC_D",
      "KC_F",
      "KC_G",
      "KC_H",
      "KC_J",
      "KC_K",
      "KC_L",
      "KC_SCLN",
      "KC_NO",
      "KC_ENT",
      "KC_LSFT",
      "KC_Z",
      "KC_X",
      "KC_C",
      "KC_V",
      "KC_B",
      "MO(2)",
      "KC_N",
      "KC_M",
      "KC_COMM",
      "KC_DOT",
      "KC_SLSH",
      "KC_RSFT",
      "KC_LCTL",
      "KC_LGUI",
      "KC_NO",
      "KC_LALT",
      "MO(1)",
      "KC_NO",
      "KC_NO",
      "KC_SPC",
      "KC_RALT",
      "KC_NO",
      "KC_PGUP",
      "KC_PGDN",
      "KC_QUOT"
    ],
    [
      "KC_NO",
      "KC_MS_BTN1",
      "KC_MS_UP",
      "KC_MS_BTN2",
      "KC_NO",
      "KC_NO",
      "KC_NO",
      "KC_NO",
      "KC_NO",
      "KC_NO",
      "KC_NO",
      "KC_NO",
      "KC_DEL",
      "KC_NO",
      "KC_MS_LEFT",
      "KC_MS_DOWN",
      "KC_MS_RIGHT",
      "KC_NO",
      "KC_NO",
      "KC_LEFT",
      "KC_DOWN",
      "KC_UP",
      "KC_RGHT",
      "KC_QUOT",
      "KC_NO",
      "KC_NO",
      "KC_LSFT",
      "KC_NO",
      "KC_NO",
      "KC_NO",
      "KC_NO",
      "KC_NO",
      "KC_NO",
      "KC_NO",
      "KC_NO",
      "KC_NO",
      "KC_NO",
      "KC_NO",
      "KC_RSFT",
      "KC_LCTL",
      "KC_LGUI",
      "KC_NO",
      "KC_NO",
      "KC_NO",
      "KC_NO",
      "KC_NO",
      "KC_SPC",
      "KC_NO",
      "KC_NO",
      "KC_LPRN",
      "KC_RPRN",
      "KC_PIPE"
    ],
    [
      "KC_GRV",
      "KC_1",
      "KC_2",
      "KC_3",
      "KC_4",
      "KC_5",
      "KC_6",
      "KC_7",
      "KC_8",
      "KC_9",
      "KC_0",
      "KC_MINS",
      "KC_EQL",
      "KC_NO",
      "KC_NO",
      "KC_NO",
      "KC_NO",
      "KC_NO",
      "KC_NO",
      "KC_MINS",
      "KC_EQL",
      "KC_LBRC",
      "KC_RBRC",
      "KC_BSLS",
      "KC_NO",
      "KC_NO",
      "KC_LSFT",
      "KC_NO",
      "KC_NO",
      "KC_NO",
      "KC_NO",
      "KC_NO",
      "KC_NO",
      "KC_NO",
      "KC_NO",
      "KC_NO",
      "KC_NO",
      "KC_NO",
      "KC_RSFT",
      "KC_LCTL",
      "KC_LGUI",
      "KC_NO",
      "KC_NO",
      "KC_LSFT",
      "KC_NO",
      "KC_NO",
      "KC_SPC",
      "KC_NO",
      "KC_NO",
      "KC_NO",
      "KC_NO",
      "KC_NO"
    ],
    [
      "KC_NO",
      "KC_NO",
      "KC_NO",
      "KC_NO",
      "KC_NO",
      "KC_ENT",
      "KC_NO",
      "KC_NO",
      "KC_NO",
      "KC_NO",
      "KC_NO",
      "KC_NO",
      "KC_NO",
      "KC_NO",
      "KC_NO",
      "KC_NO",
      "S(A(LWIN(SWIN(RSFT(ALGR(RWIN(KC_SPC)))))))",
      "KC_NO",
      "KC_NO",
      "KC_NO",
      "KC_NO",
      "KC_NO",
      "KC_NO",
      "KC_NO",
      "S(A(LWIN(SWIN(RSFT(ALGR(RWIN(KC_0)))))))",
      "KC_NO",
      "KC_NO",
      "KC_NO",
      "KC_NO",
      "KC_NO",
      "KC_NO",
      "KC_NO",
      "A(KC_2)",
      "S(A(KC_B))",
      "LWIN(KC_D)",
      "S(LWIN(SWIN(KC_F)))",
      "A(LWIN(KC_H))",
      "S(A(LWIN(SWIN(KC_J))))",
      "KC_NO",
      "S(RSFT(KC_N))",
      "A(ALGR(KC_P))",
      "S(A(RSFT(ALGR(KC_R))))",
      "LWIN(RWIN(KC_T))",
      "S(LWIN(SWIN(RSFT(RWIN(KC_V)))))",
      "A(LWIN(ALGR(RWIN(KC_X))))",
      "KC_NO",
      "KC_NO",
      "KC_NO",
      "A(KC_GRV)",
      "S(A(KC_B))",
      "LWIN(KC_D)",
      "S(LWIN(SWIN(KC_F)))"
    ]
  ],
  "encoders": []
}